pLoT model vs. SLM
…
# Apply the function to each row in the dataset
study1B$prob_of_zero <- mapply(transform_prob_to_zero, study1B$last_number, study1B$predicted_probabilities)

# View the data with transformed probabilities
print(study1B)

## # A tibble: 5,400 × 14
##    study participant_id generator rate    trial sequence type  
##    <chr>          <dbl> <chr>     <chr>   <dbl> <chr>    <fct> 
##  1 1B                 1 bingo     unknown     1 01000101 filler
##  2 1B                 1 bingo     unknown     2 10001010 filler
##  3 1B                 1 bingo     unknown     3 01000001 filler
##  4 1B                 1 bingo     unknown     4 01010010 filler
##  5 1B                 1 bingo     unknown     5 01010101 filler
##  6 1B                 1 bingo     unknown     6 10000000 target
##  7 1B                 1 bingo     unknown     7 10101010 filler
##  8 1B                 1 bingo     unknown     8 10100110 filler
##  9 1B                 1 bingo     unknown     9 11111101 filler
## 10 1B                 1 bingo     unknown    10 10100000 target
## # ℹ 5,390 more rows
## # ℹ 7 more variables: terminal_streak_length <dbl>, prediction_raw <dbl>,
## #   prediction_recode <dbl>, last_number <dbl>, last_number_count <int>,
## #   predicted_probabilities <dbl>, prob_of_zero <dbl>
…
# transform the pLoT probabilities to probability of repetition
transform_prob_to_repeat <- function(last_number, prediction) {
  if (last_number == 0) {
    return(prediction)
  } else {
    return(1 - prediction)
  }
}

# Apply transformation to all results
comparison$pLOT_repeat <- mapply(transform_prob_to_repeat, comparison$last_number, comparison$prediction)

print(comparison)

## # A tibble: 5,400 × 16
##    study participant_id generator rate    trial sequence type  
##    <chr>          <dbl> <chr>     <chr>   <dbl> <chr>    <fct> 
##  1 1B                 1 bingo     unknown     1 01000101 filler
##  2 1B                 1 bingo     unknown     2 10001010 filler
##  3 1B                 1 bingo     unknown     3 01000001 filler
##  4 1B                 1 bingo     unknown     4 01010010 filler
##  5 1B                 1 bingo     unknown     5 01010101 filler
##  6 1B                 1 bingo     unknown     6 10000000 target
##  7 1B                 1 bingo     unknown     7 10101010 filler
##  8 1B                 1 bingo     unknown     8 10100110 filler
##  9 1B                 1 bingo     unknown     9 11111101 filler
## 10 1B                 1 bingo     unknown    10 10100000 target
## # ℹ 5,390 more rows
## # ℹ 9 more variables: terminal_streak_length <dbl>, prediction_raw <dbl>,
## #   prediction_recode <dbl>, last_number <dbl>, last_number_count <int>,
## #   predicted_probabilities <dbl>, prob_of_zero <dbl>, prediction <dbl>,
## #   pLOT_repeat <dbl>
…
